EESchema Schematic File Version 2
LIBS:power
LIBS:device
LIBS:transistors
LIBS:conn
LIBS:linear
LIBS:regul
LIBS:74xx
LIBS:cmos4000
LIBS:adc-dac
LIBS:memory
LIBS:xilinx
LIBS:microcontrollers
LIBS:dsp
LIBS:microchip
LIBS:analog_switches
LIBS:motorola
LIBS:texas
LIBS:intel
LIBS:audio
LIBS:interface
LIBS:digital-audio
LIBS:philips
LIBS:display
LIBS:cypress
LIBS:siliconi
LIBS:opto
LIBS:atmel
LIBS:contrib
LIBS:valves
LIBS:ej2cese
LIBS:proyecto2_x-cache
EELAYER 25 0
EELAYER END
$Descr A4 11693 8268
encoding utf-8
Sheet 2 3
Title "proyecto 2"
Date ""
Rev "1.0"
Comp "CESE"
Comment1 "ejercicio"
Comment2 ""
Comment3 ""
Comment4 ""
$EndDescr
Text HLabel 4350 4750 0    60   Input ~ 0
RXD
Text HLabel 4350 4850 0    60   Output ~ 0
TXD
Text HLabel 4300 5450 0    60   Input ~ 0
RTS
Text HLabel 4300 5350 0    60   Output ~ 0
CTS
Text Notes 3300 5150 0    60   ~ 0
etiquetas\njerárquicas
$Comp
L Conn_Poncho2P_2x_20x2 XA1
U 1 1 581D07EB
P 5250 3950
F 0 "XA1" H 5550 4350 60  0000 C CNN
F 1 "Conn_Poncho2P_2x_20x2" H 5600 2250 60  0000 C CNN
F 2 "ej2cese:Conn_Poncho_Derecha" H 5250 3950 60  0001 C CNN
F 3 "" H 5250 3950 60  0000 C CNN
F 4 "952-1387-ND" H 5250 3950 60  0001 C CNN "Digikey#"
	1    5250 3950
	1    0    0    -1  
$EndComp
NoConn ~ 6200 5350
NoConn ~ 6200 5250
NoConn ~ 6200 4450
NoConn ~ 6200 4350
NoConn ~ 6200 4250
NoConn ~ 6200 4150
NoConn ~ 6200 4050
NoConn ~ 6200 3950
NoConn ~ 6200 3850
NoConn ~ 5000 3750
NoConn ~ 5000 3850
NoConn ~ 5000 3950
NoConn ~ 5000 4050
NoConn ~ 5000 4150
NoConn ~ 5000 4250
NoConn ~ 5000 4350
NoConn ~ 5000 4450
NoConn ~ 5000 4550
NoConn ~ 5000 4650
NoConn ~ 5000 5150
NoConn ~ 5000 5250
NoConn ~ 5000 5550
$Comp
L GND #PWR01
U 1 1 581D09B0
P 6550 5900
F 0 "#PWR01" H 6550 5650 50  0001 C CNN
F 1 "GND" H 6550 5750 50  0000 C CNN
F 2 "" H 6550 5900 50  0000 C CNN
F 3 "" H 6550 5900 50  0000 C CNN
	1    6550 5900
	1    0    0    -1  
$EndComp
$Comp
L +5V #PWR02
U 1 1 581D09CA
P 6500 3600
F 0 "#PWR02" H 6500 3450 50  0001 C CNN
F 1 "+5V" H 6500 3740 50  0000 C CNN
F 2 "" H 6500 3600 50  0000 C CNN
F 3 "" H 6500 3600 50  0000 C CNN
	1    6500 3600
	1    0    0    -1  
$EndComp
$Comp
L +3.3V #PWR03
U 1 1 581D0AAD
P 4800 3650
F 0 "#PWR03" H 4800 3500 50  0001 C CNN
F 1 "+3.3V" H 4800 3790 50  0000 C CNN
F 2 "" H 4800 3650 50  0000 C CNN
F 3 "" H 4800 3650 50  0000 C CNN
	1    4800 3650
	1    0    0    -1  
$EndComp
$Comp
L AMIS42665TJAA1RG U1
U 1 1 581D0AE8
P 9050 5200
F 0 "U1" H 8800 5700 60  0000 C CNN
F 1 "AMIS42665TJAA1RG" H 9050 4800 60  0000 C CNN
F 2 "ej2cese:SOIC-8" H 9050 5250 60  0001 C CNN
F 3 "" H 9050 5250 60  0000 C CNN
F 4 "766-1006-1-ND" H 9050 5200 60  0001 C CNN "Digikey#"
	1    9050 5200
	-1   0    0    -1  
$EndComp
$Comp
L CONN_3 JP1
U 1 1 581D0B8E
P 7250 4900
F 0 "JP1" H 7300 4900 60  0000 C CNN
F 1 "CAN" H 7350 4400 60  0000 C CNN
F 2 "ej2cese:CON_PALETA_3" H 7250 4900 60  0001 C CNN
F 3 "" H 7250 4900 60  0000 C CNN
F 4 "A19470-ND" H 7250 4900 60  0001 C CNN "Digikey#"
	1    7250 4900
	-1   0    0    -1  
$EndComp
Wire Notes Line
	4100 4550 3900 4550
Wire Notes Line
	3900 4550 3900 5650
Wire Notes Line
	3900 5650 4100 5650
Wire Wire Line
	6200 3750 6900 3750
Wire Wire Line
	6550 3750 6550 5900
Wire Wire Line
	6200 4550 6550 4550
Connection ~ 6550 4550
Wire Wire Line
	6200 4650 6550 4650
Connection ~ 6550 4650
Wire Wire Line
	6200 4750 6550 4750
Connection ~ 6550 4750
Wire Wire Line
	6200 4850 6550 4850
Connection ~ 6550 4850
Wire Wire Line
	6200 4950 6550 4950
Connection ~ 6550 4950
Wire Wire Line
	6200 5050 6550 5050
Connection ~ 6550 5050
Wire Wire Line
	6200 5150 6550 5150
Connection ~ 6550 5150
Wire Wire Line
	6200 5450 6550 5450
Connection ~ 6550 5450
Wire Wire Line
	6200 5550 6550 5550
Connection ~ 6550 5550
Wire Wire Line
	5000 4950 4850 4950
Wire Wire Line
	5000 5050 4850 5050
Wire Wire Line
	5000 4850 4350 4850
Wire Wire Line
	5000 4750 4350 4750
Wire Wire Line
	5000 5350 4300 5350
Wire Wire Line
	5000 5450 4300 5450
Wire Wire Line
	6500 3600 6500 3650
Wire Wire Line
	6500 3650 6200 3650
Wire Wire Line
	5000 3650 4800 3650
Wire Wire Line
	8100 4700 8100 5050
Wire Wire Line
	8100 5050 7450 5050
Wire Wire Line
	8100 5150 8100 5600
Wire Wire Line
	8100 5600 8300 5600
Wire Wire Line
	8300 5600 8300 5450
Wire Wire Line
	8300 5450 8400 5450
Wire Wire Line
	8100 4700 8300 4700
Wire Wire Line
	8300 4700 8300 4850
Wire Wire Line
	8300 4850 8400 4850
$Comp
L R R1
U 1 1 581D0D10
P 8200 4950
F 0 "R1" V 8280 4950 50  0000 C CNN
F 1 "60" V 8200 4950 50  0000 C CNN
F 2 "ej2cese:R_1206_HandSoldering" V 8130 4950 50  0001 C CNN
F 3 "" H 8200 4950 50  0000 C CNN
F 4 "Y149660R0000A0R-ND" H 8200 4950 60  0001 C CNN "Digikey#"
	1    8200 4950
	1    0    0    -1  
$EndComp
$Comp
L R R2
U 1 1 581D0D65
P 8200 5350
F 0 "R2" V 8280 5350 50  0000 C CNN
F 1 "60" V 8200 5350 50  0000 C CNN
F 2 "ej2cese:R_1206_HandSoldering" V 8130 5350 50  0001 C CNN
F 3 "" H 8200 5350 50  0000 C CNN
F 4 "Y149660R0000A0R-ND" H 8200 5350 60  0001 C CNN "Digikey#"
	1    8200 5350
	1    0    0    -1  
$EndComp
Wire Wire Line
	8200 5100 8200 5200
Wire Wire Line
	8200 4800 8200 4700
Connection ~ 8200 4700
Wire Wire Line
	8200 5500 8200 5600
Connection ~ 8200 5600
Wire Wire Line
	8400 5150 8200 5150
Connection ~ 8200 5150
Wire Wire Line
	8100 5150 7450 5150
Wire Wire Line
	7450 5250 7500 5250
Wire Wire Line
	7500 5250 7500 5350
$Comp
L GND #PWR04
U 1 1 581D0F17
P 7500 5350
F 0 "#PWR04" H 7500 5100 50  0001 C CNN
F 1 "GND" H 7500 5200 50  0000 C CNN
F 2 "" H 7500 5350 50  0000 C CNN
F 3 "" H 7500 5350 50  0000 C CNN
	1    7500 5350
	1    0    0    -1  
$EndComp
Wire Wire Line
	9650 5000 9800 5000
Wire Wire Line
	9800 5000 9800 5600
Wire Wire Line
	9650 5450 9800 5450
Connection ~ 9800 5450
Wire Wire Line
	9650 5150 10000 5150
Wire Wire Line
	9650 5300 10000 5300
Wire Wire Line
	9650 4850 10000 4850
$Comp
L C C1
U 1 1 581D107E
P 10150 4850
F 0 "C1" V 10300 4800 50  0000 L CNN
F 1 "100nF" V 10000 4750 50  0000 L CNN
F 2 "ej2cese:C_0603_HandSoldering" H 10188 4700 50  0001 C CNN
F 3 "" H 10150 4850 50  0000 C CNN
F 4 "311-1179-1-ND" H 10150 4850 60  0001 C CNN "Digikey#"
	1    10150 4850
	0    1    1    0   
$EndComp
$Comp
L +5V #PWR05
U 1 1 581D111F
P 9800 4800
F 0 "#PWR05" H 9800 4650 50  0001 C CNN
F 1 "+5V" H 9800 4940 50  0000 C CNN
F 2 "" H 9800 4800 50  0000 C CNN
F 3 "" H 9800 4800 50  0000 C CNN
	1    9800 4800
	1    0    0    -1  
$EndComp
Wire Wire Line
	9800 4800 9800 4850
Connection ~ 9800 4850
Wire Wire Line
	10300 4850 10500 4850
Wire Wire Line
	10500 4850 10500 4950
$Comp
L GND #PWR06
U 1 1 581D11EE
P 10500 4950
F 0 "#PWR06" H 10500 4700 50  0001 C CNN
F 1 "GND" H 10500 4800 50  0000 C CNN
F 2 "" H 10500 4950 50  0000 C CNN
F 3 "" H 10500 4950 50  0000 C CNN
	1    10500 4950
	1    0    0    -1  
$EndComp
$Comp
L GND #PWR07
U 1 1 581D120E
P 9800 5600
F 0 "#PWR07" H 9800 5350 50  0001 C CNN
F 1 "GND" H 9800 5450 50  0000 C CNN
F 2 "" H 9800 5600 50  0000 C CNN
F 3 "" H 9800 5600 50  0000 C CNN
	1    9800 5600
	1    0    0    -1  
$EndComp
$Comp
L PWR_FLAG #FLG08
U 1 1 581D165E
P 6900 3650
F 0 "#FLG08" H 6900 3745 50  0001 C CNN
F 1 "PWR_FLAG" H 6900 3830 50  0000 C CNN
F 2 "" H 6900 3650 50  0000 C CNN
F 3 "" H 6900 3650 50  0000 C CNN
	1    6900 3650
	1    0    0    -1  
$EndComp
Wire Wire Line
	6900 3750 6900 3650
Connection ~ 6550 3750
Text Label 10000 5150 0    60   ~ 0
CAN_TX
Text Label 10000 5300 0    60   ~ 0
CAN_RX
Text Label 4850 4950 2    60   ~ 0
CAN_RX
Text Label 4850 5050 2    60   ~ 0
CAN_TX
Text Label 7550 5050 0    60   ~ 0
CAN_P
Text Label 7550 5150 0    60   ~ 0
CAN_N
$EndSCHEMATC
