M48
;DRILL file {KiCad 4.0.4+e1-6308~48~ubuntu16.04.1-stable} date Fri Nov 25 20:15:46 2016
;FORMAT={-:-/ absolute / inch / decimal}
FMAT,2
INCH,TZ
T1C0.028
T2C0.039
T3C0.040
T4C0.134
%
G90
G05
M72
T1
X4.5571Y-4.8228
X4.6457Y-5.2067
X4.6949Y-5.1181
X4.7146Y-5.
X4.7441Y-3.9764
X4.7539Y-4.0551
X4.7835Y-4.5571
X4.8622Y-4.5571
X4.9508Y-5.4626
X4.9606Y-4.4783
X5.1673Y-3.6122
X5.2165Y-3.9075
X5.2657Y-5.128
X5.2756Y-4.0748
X5.3445Y-5.1969
X5.3543Y-4.3898
X5.3543Y-4.4783
X5.4429Y-4.4587
T2
X4.9689Y-3.5039
X5.0689Y-3.5039
X5.1689Y-3.5039
T3
X4.6639Y-5.7314
X4.7184Y-5.8434
X4.7729Y-5.7314
X4.8274Y-5.8434
X4.8819Y-5.7314
X4.9364Y-5.8434
X4.9909Y-5.7314
X5.0454Y-5.8434
X5.0999Y-5.7314
X5.5512Y-3.5039
X5.5512Y-3.6039
X5.5512Y-3.7039
X5.5512Y-3.8039
X5.5512Y-3.9039
X5.5512Y-4.0039
X5.5512Y-4.1039
X5.5512Y-4.2039
X5.5512Y-4.3039
X5.5512Y-4.4039
X5.5512Y-4.5039
X5.5512Y-4.6039
X5.5512Y-4.7039
X5.5512Y-4.8039
X5.5512Y-4.9039
X5.5512Y-5.0039
X5.5512Y-5.1039
X5.5512Y-5.2039
X5.5512Y-5.3039
X5.5512Y-5.4039
X5.6512Y-3.5039
X5.6512Y-3.6039
X5.6512Y-3.7039
X5.6512Y-3.8039
X5.6512Y-3.9039
X5.6512Y-4.0039
X5.6512Y-4.1039
X5.6512Y-4.2039
X5.6512Y-4.3039
X5.6512Y-4.4039
X5.6512Y-4.5039
X5.6512Y-4.6039
X5.6512Y-4.7039
X5.6512Y-4.8039
X5.6512Y-4.9039
X5.6512Y-5.0039
X5.6512Y-5.1039
X5.6512Y-5.2039
X5.6512Y-5.3039
X5.6512Y-5.4039
T4
X4.3899Y-5.7874
X5.3739Y-5.7874
T0
M30
