EESchema Schematic File Version 2
LIBS:power
LIBS:device
LIBS:transistors
LIBS:conn
LIBS:linear
LIBS:regul
LIBS:74xx
LIBS:cmos4000
LIBS:adc-dac
LIBS:memory
LIBS:xilinx
LIBS:microcontrollers
LIBS:dsp
LIBS:microchip
LIBS:analog_switches
LIBS:motorola
LIBS:texas
LIBS:intel
LIBS:audio
LIBS:interface
LIBS:digital-audio
LIBS:philips
LIBS:display
LIBS:cypress
LIBS:siliconi
LIBS:opto
LIBS:atmel
LIBS:contrib
LIBS:valves
LIBS:ej2cese
LIBS:proyecto2_x-cache
EELAYER 25 0
EELAYER END
$Descr A4 11693 8268
encoding utf-8
Sheet 3 3
Title "proyecto 2"
Date ""
Rev "1.0"
Comp "CESE"
Comment1 "ejercicio"
Comment2 ""
Comment3 ""
Comment4 ""
$EndDescr
Text HLabel 2100 4100 0    60   BiDi ~ 0
RS[1..4]
Wire Bus Line
	2100 4100 2500 4100
Wire Bus Line
	2500 4100 2500 5050
Wire Wire Line
	2600 4550 3550 4550
Wire Wire Line
	2600 4650 3550 4650
Wire Wire Line
	2600 5050 3550 5050
Wire Wire Line
	2600 5150 3550 5150
Text Label 2700 4550 0    60   ~ 0
RS1
Text Label 2700 5050 0    60   ~ 0
RS2
Text Label 2700 4650 0    60   ~ 0
RS3
Text Label 2700 5150 0    60   ~ 0
RS4
Entry Wire Line
	2500 5050 2600 5150
Entry Wire Line
	2500 4950 2600 5050
Entry Wire Line
	2500 4550 2600 4650
Entry Wire Line
	2500 4450 2600 4550
$Comp
L MAX232_MP U2
U 1 1 582617D6
P 5150 3100
F 0 "U2" H 5150 3700 60  0000 C CNN
F 1 "MAX232_MP" H 5150 2450 60  0000 C CNN
F 2 "ej2cese:SP3232ECN-SOIC16N" H 5150 3100 60  0001 C CNN
F 3 "" H 5150 3100 60  0000 C CNN
F 4 "1016-1803-1-ND" H 5150 3100 60  0001 C CNN "Digikey#"
	1    5150 3100
	1    0    0    -1  
$EndComp
$Comp
L MAX232_MP U2
U 2 1 58261831
P 4050 4900
F 0 "U2" H 4050 5500 60  0000 C CNN
F 1 "MAX232_MP" H 4050 4250 60  0000 C CNN
F 2 "ej2cese:SP3232ECN-SOIC16N" H 4050 4900 60  0001 C CNN
F 3 "" H 4050 4900 60  0000 C CNN
	2    4050 4900
	1    0    0    -1  
$EndComp
$Comp
L C C3
U 1 1 58261892
P 4150 3450
F 0 "C3" H 4175 3550 50  0000 L CNN
F 1 "100nf" H 4175 3350 50  0000 L CNN
F 2 "ej2cese:C_0603_HandSoldering" H 4188 3300 50  0001 C CNN
F 3 "" H 4150 3450 50  0000 C CNN
F 4 "311-1179-1-ND" H 4150 3450 60  0001 C CNN "Digikey#"
	1    4150 3450
	1    0    0    -1  
$EndComp
$Comp
L C C5
U 1 1 582618E7
P 6000 2650
F 0 "C5" H 6025 2750 50  0000 L CNN
F 1 "100nf" H 6025 2550 50  0000 L CNN
F 2 "ej2cese:C_0603_HandSoldering" H 6038 2500 50  0001 C CNN
F 3 "" H 6000 2650 50  0000 C CNN
F 4 "311-1179-1-ND" H 6000 2650 60  0001 C CNN "Digikey#"
	1    6000 2650
	0    1    1    0   
$EndComp
$Comp
L C C2
U 1 1 5826190E
P 4150 2950
F 0 "C2" H 4175 3050 50  0000 L CNN
F 1 "100nf" H 4175 2850 50  0000 L CNN
F 2 "ej2cese:C_0603_HandSoldering" H 4188 2800 50  0001 C CNN
F 3 "" H 4150 2950 50  0000 C CNN
F 4 "311-1179-1-ND" H 4150 2950 60  0001 C CNN "Digikey#"
	1    4150 2950
	1    0    0    -1  
$EndComp
$Comp
L C C6
U 1 1 5826197B
P 6000 2900
F 0 "C6" H 6025 3000 50  0000 L CNN
F 1 "100nf" H 6025 2800 50  0000 L CNN
F 2 "ej2cese:C_0603_HandSoldering" H 6038 2750 50  0001 C CNN
F 3 "" H 6000 2900 50  0000 C CNN
F 4 "311-1179-1-ND" H 6000 2900 60  0001 C CNN "Digikey#"
	1    6000 2900
	0    1    1    0   
$EndComp
$Comp
L C C4
U 1 1 582619CC
P 4150 2250
F 0 "C4" H 4175 2350 50  0000 L CNN
F 1 "100nf" H 4175 2150 50  0000 L CNN
F 2 "ej2cese:C_0603_HandSoldering" H 4188 2100 50  0001 C CNN
F 3 "" H 4150 2250 50  0000 C CNN
F 4 "311-1179-1-ND" H 4150 2250 60  0001 C CNN "Digikey#"
	1    4150 2250
	1    0    0    -1  
$EndComp
$Comp
L DB9 J1
U 1 1 58261A39
P 6500 4850
F 0 "J1" H 6500 5400 50  0000 C CNN
F 1 "DB9" H 6500 4300 50  0000 C CNN
F 2 "ej2cese:DB9_F_TH" H 6500 4850 50  0001 C CNN
F 3 "" H 6500 4850 50  0000 C CNN
F 4 "S9554-ND" H 6500 4850 60  0001 C CNN "Digikey#"
	1    6500 4850
	1    0    0    -1  
$EndComp
$Comp
L GND #PWR09
U 1 1 58261E31
P 6450 2700
F 0 "#PWR09" H 6450 2450 50  0001 C CNN
F 1 "GND" H 6450 2550 50  0000 C CNN
F 2 "" H 6450 2700 50  0000 C CNN
F 3 "" H 6450 2700 50  0000 C CNN
	1    6450 2700
	1    0    0    -1  
$EndComp
$Comp
L GND #PWR010
U 1 1 58261E7D
P 4550 2750
F 0 "#PWR010" H 4550 2500 50  0001 C CNN
F 1 "GND" H 4550 2800 50  0000 C CNN
F 2 "" H 4550 2750 50  0000 C CNN
F 3 "" H 4550 2750 50  0000 C CNN
	1    4550 2750
	1    0    0    -1  
$EndComp
Wire Wire Line
	4700 2900 4350 2900
Wire Wire Line
	4350 2900 4350 2750
Wire Wire Line
	4350 2750 4150 2750
Wire Wire Line
	4150 2750 4150 2800
Wire Wire Line
	4700 3150 4150 3150
Wire Wire Line
	4150 3150 4150 3100
Wire Wire Line
	4700 3250 4150 3250
Wire Wire Line
	4150 3250 4150 3300
Wire Wire Line
	4700 3450 4350 3450
Wire Wire Line
	4350 3450 4350 3650
Wire Wire Line
	4350 3650 4150 3650
Wire Wire Line
	4150 3650 4150 3600
Wire Wire Line
	4700 2750 4550 2750
Wire Wire Line
	4150 2400 4150 2500
$Comp
L GND #PWR011
U 1 1 582620C4
P 4150 2500
F 0 "#PWR011" H 4150 2250 50  0001 C CNN
F 1 "GND" H 4150 2350 50  0000 C CNN
F 2 "" H 4150 2500 50  0000 C CNN
F 3 "" H 4150 2500 50  0000 C CNN
	1    4150 2500
	1    0    0    -1  
$EndComp
Wire Wire Line
	4700 1900 4700 2650
Wire Wire Line
	5850 2650 5600 2650
Wire Wire Line
	5850 2900 5600 2900
Wire Wire Line
	6150 2650 6450 2650
Wire Wire Line
	6450 2650 6450 2700
Wire Wire Line
	6150 2900 6450 2900
Wire Wire Line
	6450 2900 6450 2950
$Comp
L GND #PWR012
U 1 1 58261E57
P 6450 2950
F 0 "#PWR012" H 6450 2700 50  0001 C CNN
F 1 "GND" H 6450 2800 50  0000 C CNN
F 2 "" H 6450 2950 50  0000 C CNN
F 3 "" H 6450 2950 50  0000 C CNN
	1    6450 2950
	1    0    0    -1  
$EndComp
$Comp
L GND #PWR013
U 1 1 582626BE
P 5800 4500
F 0 "#PWR013" H 5800 4250 50  0001 C CNN
F 1 "GND" H 5800 4350 50  0000 C CNN
F 2 "" H 5800 4500 50  0000 C CNN
F 3 "" H 5800 4500 50  0000 C CNN
	1    5800 4500
	1    0    0    -1  
$EndComp
Wire Wire Line
	6050 4450 5800 4450
Wire Wire Line
	5800 4450 5800 4500
Wire Wire Line
	4550 4650 5050 4650
Wire Wire Line
	5050 4650 5050 4750
Wire Wire Line
	5050 4750 6050 4750
Wire Wire Line
	6050 4850 5050 4850
Wire Wire Line
	5050 4850 5050 5050
Wire Wire Line
	5050 5050 4550 5050
Wire Wire Line
	6050 4950 5150 4950
Wire Wire Line
	5150 4950 5150 5150
Wire Wire Line
	5150 5150 4550 5150
Wire Wire Line
	6050 5050 5300 5050
Wire Wire Line
	5300 5050 5300 4550
Wire Wire Line
	5300 4550 4550 4550
Text Label 4650 4650 0    60   ~ 0
eduRTS
Text Label 5400 4850 0    60   ~ 0
eduRX
Text Label 5400 4950 0    60   ~ 0
eduCTS
Text Label 5450 5050 0    60   ~ 0
eduTX
NoConn ~ 6050 4550
NoConn ~ 6050 4650
NoConn ~ 6050 5150
NoConn ~ 6050 5250
Wire Wire Line
	4150 2100 4150 2000
Wire Wire Line
	4150 2000 4700 2000
Connection ~ 4700 2000
$Comp
L +3.3V #PWR014
U 1 1 582642FD
P 4700 1900
F 0 "#PWR014" H 4700 1750 50  0001 C CNN
F 1 "+3.3V" H 4700 2040 50  0000 C CNN
F 2 "" H 4700 1900 50  0000 C CNN
F 3 "" H 4700 1900 50  0000 C CNN
	1    4700 1900
	1    0    0    -1  
$EndComp
$EndSCHEMATC
