EESchema Schematic File Version 2
LIBS:power
LIBS:board1114-cache
EELAYER 25 0
EELAYER END
$Descr A4 11693 8268
encoding utf-8
Sheet 1 2
Title "LPC1114 board"
Date "2016-12-10"
Rev "archivo Rev.txt"
Comp "Carducci L. "
Comment1 "placa de desarrollo básica"
Comment2 "Revisor Alonso R."
Comment3 "Licencia BSD"
Comment4 ""
$EndDescr
$Comp
L C C4
U 1 1 5826BD5E
P 4700 4550
F 0 "C4" H 4725 4650 50  0000 L CNN
F 1 "10nF" H 4725 4450 50  0000 L CNN
F 2 "Capacitors_SMD:C_1206" H 4738 4400 50  0001 C CNN
F 3 "" H 4700 4550 50  0000 C CNN
F 4 "810-C3216X7T2V104M6A" H 4700 4550 60  0001 C CNN "MOUSER#"
	1    4700 4550
	1    0    0    -1  
$EndComp
$Comp
L C C2
U 1 1 5826BD97
P 4200 4550
F 0 "C2" H 4225 4650 50  0000 L CNN
F 1 "100nF" H 4225 4450 50  0000 L CNN
F 2 "Capacitors_SMD:C_1206" H 4238 4400 50  0001 C CNN
F 3 "" H 4200 4550 50  0000 C CNN
F 4 "810-C3216X7T2V104M6A" H 4200 4550 60  0001 C CNN "MOUSER#"
	1    4200 4550
	1    0    0    -1  
$EndComp
$Comp
L C C6
U 1 1 5826BDC4
P 8550 4550
F 0 "C6" H 8575 4650 50  0000 L CNN
F 1 "18pF" H 8575 4450 50  0000 L CNN
F 2 "Capacitors_SMD:C_1206" H 8588 4400 50  0001 C CNN
F 3 "" H 8550 4550 50  0000 C CNN
F 4 "581-04023A180GAT2A" H 8550 4550 60  0001 C CNN "MOUSER#"
	1    8550 4550
	-1   0    0    -1  
$EndComp
$Comp
L C C1
U 1 1 5826BDE9
P 9150 4550
F 0 "C1" H 9175 4650 50  0000 L CNN
F 1 "18pF" H 9175 4450 50  0000 L CNN
F 2 "Capacitors_SMD:C_1206" H 9188 4400 50  0001 C CNN
F 3 "" H 9150 4550 50  0000 C CNN
F 4 "581-04023A180GAT2A" H 9150 4550 60  0001 C CNN "MOUSER#"
	1    9150 4550
	-1   0    0    -1  
$EndComp
$Comp
L Crystal Y1
U 1 1 5826BEF9
P 8850 4350
F 0 "Y1" H 8850 4500 50  0000 C CNN
F 1 "12MHz" H 8850 4200 50  0000 C CNN
F 2 "Crystals:Q_49U3HMS" H 8850 4350 50  0001 C CNN
F 3 "" H 8850 4350 50  0000 C CNN
F 4 "535-10218-1-ND" H 8850 4350 60  0001 C CNN "Digikey#"
	1    8850 4350
	-1   0    0    -1  
$EndComp
$Comp
L R R2
U 1 1 5826BF84
P 3650 4050
F 0 "R2" V 3730 4050 50  0000 C CNN
F 1 "2k" V 3650 4050 50  0000 C CNN
F 2 "Resistors_SMD:R_1206" V 3580 4050 50  0001 C CNN
F 3 "" H 3650 4050 50  0000 C CNN
F 4 "755-PMR18EZPFU7L00" H 3650 4050 60  0001 C CNN "MOUSER#"
	1    3650 4050
	1    0    0    1   
$EndComp
$Comp
L R R1
U 1 1 5826C023
P 10650 4700
F 0 "R1" V 10730 4700 50  0000 C CNN
F 1 "12k" V 10650 4700 50  0000 C CNN
F 2 "Resistors_SMD:R_1206" V 10580 4700 50  0001 C CNN
F 3 "" H 10650 4700 50  0000 C CNN
F 4 "755-PMR18EZPFU7L00" H 10650 4700 60  0001 C CNN "MOUSER#"
	1    10650 4700
	1    0    0    1   
$EndComp
$Comp
L GND #PWR01
U 1 1 5826C2B3
P 8100 4750
F 0 "#PWR01" H 8100 4500 50  0001 C CNN
F 1 "GND" H 8100 4600 50  0001 C CNN
F 2 "" H 8100 4750 50  0000 C CNN
F 3 "" H 8100 4750 50  0000 C CNN
	1    8100 4750
	-1   0    0    -1  
$EndComp
$Comp
L GND #PWR02
U 1 1 5826C69D
P 4200 4750
F 0 "#PWR02" H 4200 4500 50  0001 C CNN
F 1 "GND" H 4350 4700 50  0001 C CNN
F 2 "" H 4200 4750 50  0000 C CNN
F 3 "" H 4200 4750 50  0000 C CNN
	1    4200 4750
	-1   0    0    -1  
$EndComp
$Comp
L GND #PWR03
U 1 1 5826C6C5
P 4700 4750
F 0 "#PWR03" H 4700 4500 50  0001 C CNN
F 1 "GND" H 4550 4700 50  0001 C CNN
F 2 "" H 4700 4750 50  0000 C CNN
F 3 "" H 4700 4750 50  0000 C CNN
	1    4700 4750
	-1   0    0    -1  
$EndComp
$Comp
L GND #PWR04
U 1 1 5826CAB5
P 8550 4750
F 0 "#PWR04" H 8550 4500 50  0001 C CNN
F 1 "GND" H 8550 4600 50  0001 C CNN
F 2 "" H 8550 4750 50  0000 C CNN
F 3 "" H 8550 4750 50  0000 C CNN
	1    8550 4750
	-1   0    0    -1  
$EndComp
$Comp
L GND #PWR05
U 1 1 5826CB12
P 9150 4750
F 0 "#PWR05" H 9150 4500 50  0001 C CNN
F 1 "GND" H 9150 4600 50  0001 C CNN
F 2 "" H 9150 4750 50  0000 C CNN
F 3 "" H 9150 4750 50  0000 C CNN
	1    9150 4750
	-1   0    0    -1  
$EndComp
$Comp
L LED D1
U 1 1 5826D29A
P 3650 4450
F 0 "D1" H 3650 4550 50  0000 C CNN
F 1 "LED" H 3650 4350 50  0000 C CNN
F 2 "LEDs:LED_1206" H 3650 4450 50  0001 C CNN
F 3 "" H 3650 4450 50  0000 C CNN
F 4 "475-1415-1-ND" H 3650 4450 60  0001 C CNN "Digikey#"
	1    3650 4450
	0    1    -1   0   
$EndComp
$Comp
L GND #PWR06
U 1 1 5826D369
P 3650 4750
F 0 "#PWR06" H 3650 4500 50  0001 C CNN
F 1 "GND" H 3650 4600 50  0001 C CNN
F 2 "" H 3650 4750 50  0000 C CNN
F 3 "" H 3650 4750 50  0000 C CNN
	1    3650 4750
	-1   0    0    -1  
$EndComp
$Comp
L LPC1114 U1
U 1 1 5826DE75
P 6850 3800
F 0 "U1" H 5950 5750 60  0000 C CNN
F 1 "LPC1114" H 7200 5800 60  0000 C CNN
F 2 "Housings_SSOP:TSSOP-28_4.4x9.7mm_Pitch0.65mm" H 6900 3450 60  0001 C CNN
F 3 "" H 6900 3450 60  0001 C CNN
F 4 "568-11903-1-ND" H 6850 3800 60  0001 C CNN "Digikey#"
	1    6850 3800
	-1   0    0    -1  
$EndComp
$Comp
L CONN_01X08 P3
U 1 1 5826E119
P 10500 3500
F 0 "P3" H 10500 3950 50  0000 C CNN
F 1 "CONN_01X08" V 10600 3500 50  0000 C CNN
F 2 "Pin_Headers:Pin_Header_Straight_1x08" H 10500 3500 50  0001 C CNN
F 3 "" H 10500 3500 50  0000 C CNN
F 4 "653-XG8V-0831" H 10500 3500 60  0001 C CNN "MOUSER#"
	1    10500 3500
	1    0    0    -1  
$EndComp
Text Label 8150 3450 0    60   ~ 0
~RESET
NoConn ~ 10300 3450
NoConn ~ 10300 3650
NoConn ~ 10300 3750
Text Notes 9800 2100 0    60   ~ 0
Conector JTAG compatible \ncon LPC-Link (1769)\n----------------\nSeñales NO disponibles \npara LPC1114:  \n SWO, POW y TDI.
$Comp
L TEST W4
U 1 1 582773D2
P 3650 3650
F 0 "W4" H 3650 3710 50  0000 C CNN
F 1 "TEST" H 3650 3580 50  0000 C CNN
F 2 "Pin_Headers:Pin_Header_Straight_1x02" H 3650 3650 50  0001 C CNN
F 3 "" H 3650 3650 50  0000 C CNN
F 4 "538-22-28-4027" H 3650 3650 60  0001 C CNN "MOUSER#"
	1    3650 3650
	0    -1   1    0   
$EndComp
$Comp
L SW_PUSH SW1
U 1 1 5827792F
P 10250 5350
F 0 "SW1" H 10400 5460 50  0000 C CNN
F 1 "SW_PUSH" H 10250 5270 50  0000 C CNN
F 2 "Buttons_Switches_ThroughHole:SW_TH_Tactile_Omron_B3F-10xx" H 10250 5350 50  0001 C CNN
F 3 "" H 10250 5350 50  0000 C CNN
F 4 "653-B3W-4050" H 10250 5350 60  0001 C CNN "MOUSER#"
	1    10250 5350
	0    -1   1    0   
$EndComp
$Comp
L C C10
U 1 1 582779D8
P 10650 5350
F 0 "C10" H 10675 5450 50  0000 L CNN
F 1 "100nF" H 10675 5250 50  0000 L CNN
F 2 "Capacitors_SMD:C_1206" H 10688 5200 50  0001 C CNN
F 3 "" H 10650 5350 50  0000 C CNN
F 4 "810-C3216X7T2V104M6A" H 10650 5350 60  0001 C CNN "MOUSER#"
	1    10650 5350
	-1   0    0    -1  
$EndComp
$Comp
L GND #PWR07
U 1 1 58277D81
P 10650 5700
F 0 "#PWR07" H 10650 5450 50  0001 C CNN
F 1 "GND" H 10650 5550 50  0001 C CNN
F 2 "" H 10650 5700 50  0000 C CNN
F 3 "" H 10650 5700 50  0000 C CNN
	1    10650 5700
	-1   0    0    -1  
$EndComp
Text Label 10300 4950 0    60   ~ 0
~RESET
Text Label 4400 3400 0    60   ~ 0
LED
$Comp
L TEST W2
U 1 1 5827B16A
P 2650 1650
F 0 "W2" H 2650 1710 50  0000 C CNN
F 1 "TEST" H 2650 1550 50  0000 C CNN
F 2 "Pin_Headers:Pin_Header_Straight_1x02" H 2650 1650 50  0001 C CNN
F 3 "" H 2650 1650 50  0000 C CNN
F 4 "538-22-28-4027" H 2650 1650 60  0001 C CNN "MOUSER#"
	1    2650 1650
	-1   0    0    -1  
$EndComp
$Comp
L TEST W3
U 1 1 5827B1E1
P 2650 1950
F 0 "W3" H 2650 2010 50  0000 C CNN
F 1 "TEST" H 2650 1850 50  0000 C CNN
F 2 "Pin_Headers:Pin_Header_Straight_1x02" H 2650 1950 50  0001 C CNN
F 3 "" H 2650 1950 50  0000 C CNN
F 4 "538-22-28-4027" H 2650 1950 60  0001 C CNN "MOUSER#"
	1    2650 1950
	-1   0    0    -1  
$EndComp
Text Label 4500 2150 2    60   ~ 0
TX
Text Label 4500 2050 2    60   ~ 0
RX
$Comp
L AP1117 U2
U 1 1 5827C30C
P 3900 6700
F 0 "U2" H 4000 6450 50  0000 C CNN
F 1 "AP1117" H 3900 6950 50  0000 C CNN
F 2 "TO_SOT_Packages_SMD:TO-263-3Lead" H 3900 6700 50  0001 C CNN
F 3 "" H 3900 6700 50  0000 C CNN
F 4 "LM1117MPX-3.3/NOPBCT-ND" H 3900 6700 60  0001 C CNN "Digikey#"
	1    3900 6700
	1    0    0    -1  
$EndComp
$Comp
L C C8
U 1 1 5827C3E7
P 3300 6900
F 0 "C8" H 3325 7000 50  0000 L CNN
F 1 "100nF" H 3325 6800 50  0000 L CNN
F 2 "Capacitors_SMD:C_1206" H 3338 6750 50  0001 C CNN
F 3 "" H 3300 6900 50  0000 C CNN
F 4 "810-C3216X7T2V104M6A" H 3300 6900 60  0001 C CNN "MOUSER#"
	1    3300 6900
	1    0    0    -1  
$EndComp
$Comp
L C C9
U 1 1 5827C4C6
P 4550 6950
F 0 "C9" H 4575 7050 50  0000 L CNN
F 1 "100nF" H 4575 6850 50  0000 L CNN
F 2 "Capacitors_SMD:C_1206" H 4588 6800 50  0001 C CNN
F 3 "" H 4550 6950 50  0000 C CNN
F 4 "810-C3216X7T2V104M6A" H 4550 6950 60  0001 C CNN "MOUSER#"
	1    4550 6950
	1    0    0    -1  
$EndComp
$Comp
L CP C7
U 1 1 5827C531
P 3000 6900
F 0 "C7" H 3025 7000 50  0000 L CNN
F 1 "10uF" H 3025 6800 50  0000 L CNN
F 2 "Capacitors_SMD:c_elec_4x5.3" H 3038 6750 50  0001 C CNN
F 3 "" H 3000 6900 50  0000 C CNN
F 4 "EEE-1CA100SR" H 3000 6900 60  0001 C CNN "MOUSER#"
	1    3000 6900
	1    0    0    -1  
$EndComp
$Comp
L CONN_01X02 P1
U 1 1 5827C932
P 1750 6750
F 0 "P1" H 1750 6900 50  0000 C CNN
F 1 "5V" V 1850 6750 50  0000 C CNN
F 2 "Connectors_Molex:Molex_KK_6410-02" H 1750 6750 50  0001 C CNN
F 3 "" H 1750 6750 50  0000 C CNN
F 4 "538-22-27-2021" H 1750 6750 60  0001 C CNN "MOUSER#"
	1    1750 6750
	-1   0    0    1   
$EndComp
$Comp
L GND #PWR08
U 1 1 5827CB1B
P 3900 7250
F 0 "#PWR08" H 3900 7000 50  0001 C CNN
F 1 "GND" H 3900 7100 50  0000 C CNN
F 2 "" H 3900 7250 50  0000 C CNN
F 3 "" H 3900 7250 50  0000 C CNN
	1    3900 7250
	1    0    0    -1  
$EndComp
Text Notes 1550 6200 0    60   ~ 0
Fuente regulada a 3,3V (LM1117)
Text Notes 2200 2650 0    60   ~ 0
Jumpers para habilitación \nde la interfaz UART  \ny el conector Derecho\n
Text Notes 2350 6500 0    60   ~ 0
Test de \ncirriente
$Comp
L PWR_FLAG #FLG09
U 1 1 5827FF79
P 4900 6900
F 0 "#FLG09" H 4900 6995 50  0001 C CNN
F 1 "PWR_FLAG" H 4900 7080 50  0000 C CNN
F 2 "" H 4900 6900 50  0000 C CNN
F 3 "" H 4900 6900 50  0000 C CNN
	1    4900 6900
	1    0    0    -1  
$EndComp
$Comp
L +3.3V #PWR010
U 1 1 582F4A7C
P 9750 3100
F 0 "#PWR010" H 9750 2950 50  0001 C CNN
F 1 "+3.3V" H 9750 3240 50  0000 C CNN
F 2 "" H 9750 3100 50  0000 C CNN
F 3 "" H 9750 3100 50  0000 C CNN
	1    9750 3100
	1    0    0    -1  
$EndComp
$Comp
L +3.3V #PWR011
U 1 1 582F4B46
P 10650 4400
F 0 "#PWR011" H 10650 4250 50  0001 C CNN
F 1 "+3.3V" H 10800 4500 50  0000 C CNN
F 2 "" H 10650 4400 50  0000 C CNN
F 3 "" H 10650 4400 50  0000 C CNN
	1    10650 4400
	-1   0    0    -1  
$EndComp
$Comp
L +3.3V #PWR012
U 1 1 582F4EBD
P 4200 4300
F 0 "#PWR012" H 4200 4150 50  0001 C CNN
F 1 "+3.3V" H 4050 4400 50  0000 C CNN
F 2 "" H 4200 4300 50  0000 C CNN
F 3 "" H 4200 4300 50  0000 C CNN
	1    4200 4300
	1    0    0    -1  
$EndComp
$Comp
L +3.3V #PWR013
U 1 1 582F50F3
P 4550 6650
F 0 "#PWR013" H 4550 6500 50  0001 C CNN
F 1 "+3.3V" H 4550 6790 50  0000 C CNN
F 2 "" H 4550 6650 50  0000 C CNN
F 3 "" H 4550 6650 50  0000 C CNN
	1    4550 6650
	1    0    0    -1  
$EndComp
Text Notes 9750 3700 0    60   ~ 0
JTAG_POW
Text Notes 9800 3800 0    60   ~ 0
JTAG_TDI
Text Notes 9750 3500 0    60   ~ 0
JTAG_SWO
$Comp
L GND #PWR014
U 1 1 583104A6
P 9800 3900
F 0 "#PWR014" H 9800 3650 50  0001 C CNN
F 1 "GND" H 9800 3750 50  0001 C CNN
F 2 "" H 9800 3900 50  0000 C CNN
F 3 "" H 9800 3900 50  0000 C CNN
	1    9800 3900
	-1   0    0    -1  
$EndComp
Text Notes 10200 3250 2    60   ~ 0
JTAG_SWIO
Text Notes 10200 3350 2    60   ~ 0
JTAG_SWCLK
$Sheet
S 750  1450 850  700 
U 58318CC5
F0 "FTDI232" 60
F1 "FTDIsheet.sch" 60
F2 "RX" I R 1600 1750 60 
F3 "TX" O R 1600 1850 60 
$EndSheet
Text Notes 1150 2750 0    60   ~ 0
Conversor (FTDI) \nUART-USB 
$Comp
L TEST_IDD W1
U 1 1 5834F744
P 2550 6700
F 0 "W1" H 2550 6760 50  0000 C CNN
F 1 "TEST_IDD" H 2550 6630 50  0000 C CNN
F 2 "Pin_Headers:Pin_Header_Straight_1x02" H 2550 6700 50  0001 C CNN
F 3 "" H 2550 6700 50  0000 C CNN
F 4 "538-22-28-4027" H 2550 6700 60  0001 C CNN "MOUSER#"
	1    2550 6700
	1    0    0    -1  
$EndComp
$Comp
L D D2
U 1 1 58350899
P 2000 6450
F 0 "D2" H 2000 6550 50  0000 C CNN
F 1 "DA2J10100L" H 2000 6350 50  0000 C CNN
F 2 "Diodes_SMD:SMA_Standard" H 2000 6450 50  0001 C CNN
F 3 "" H 2000 6450 50  0000 C CNN
F 4 "DA2J10100LDKR-ND" H 2000 6450 60  0001 C CNN "Digikey#"
	1    2000 6450
	-1   0    0    1   
$EndComp
$Comp
L +5V #PWR015
U 1 1 58350BFC
P 1750 6450
F 0 "#PWR015" H 1750 6300 50  0001 C CNN
F 1 "+5V" V 1850 6550 50  0000 C CNN
F 2 "" H 1750 6450 50  0000 C CNN
F 3 "" H 1750 6450 50  0000 C CNN
	1    1750 6450
	0    -1   -1   0   
$EndComp
$Comp
L GND #PWR016
U 1 1 5838FCE7
P 10250 5700
F 0 "#PWR016" H 10250 5450 50  0001 C CNN
F 1 "GND" H 10250 5550 50  0001 C CNN
F 2 "" H 10250 5700 50  0000 C CNN
F 3 "" H 10250 5700 50  0000 C CNN
	1    10250 5700
	-1   0    0    -1  
$EndComp
$Comp
L CONN_01X10 P4
U 1 1 583A5472
P 4000 2500
F 0 "P4" H 4000 3050 50  0000 C CNN
F 1 "CONN_IZQ" V 4100 2500 50  0000 C CNN
F 2 "Pin_Headers:Pin_Header_Straight_1x10" H 4000 2500 50  0001 C CNN
F 3 "" H 4000 2500 50  0000 C CNN
F 4 "710-61301011821" H 4000 2500 60  0001 C CNN "MOUSER#"
	1    4000 2500
	-1   0    0    1   
$EndComp
$Comp
L GND #PWR017
U 1 1 583A5873
P 4250 3000
F 0 "#PWR017" H 4250 2750 50  0001 C CNN
F 1 "GND" H 4250 2850 50  0001 C CNN
F 2 "" H 4250 3000 50  0000 C CNN
F 3 "" H 4250 3000 50  0000 C CNN
	1    4250 3000
	-1   0    0    -1  
$EndComp
$Comp
L CONN_01X10 P2
U 1 1 583A5E18
P 8650 2400
F 0 "P2" H 8650 2950 50  0000 C CNN
F 1 "CONN_DER" V 8750 2400 50  0000 C CNN
F 2 "Pin_Headers:Pin_Header_Straight_1x10" H 8650 2400 50  0001 C CNN
F 3 "" H 8650 2400 50  0000 C CNN
F 4 "710-61301011821" H 8650 2400 60  0001 C CNN "MOUSER#"
	1    8650 2400
	1    0    0    -1  
$EndComp
$Comp
L +3.3V #PWR018
U 1 1 583A6B89
P 8300 1900
F 0 "#PWR018" H 8300 1750 50  0001 C CNN
F 1 "+3.3V" H 8150 2000 50  0000 C CNN
F 2 "" H 8300 1900 50  0000 C CNN
F 3 "" H 8300 1900 50  0000 C CNN
	1    8300 1900
	1    0    0    -1  
$EndComp
Wire Wire Line
	8050 4450 8100 4450
Wire Wire Line
	8100 4450 8100 4750
Wire Wire Line
	8050 4550 8100 4550
Connection ~ 8100 4550
Wire Wire Line
	4200 4350 4800 4350
Wire Wire Line
	4200 4300 4200 4400
Wire Wire Line
	4700 3650 4700 4400
Connection ~ 4700 4350
Wire Wire Line
	4200 4700 4200 4750
Wire Wire Line
	4700 4700 4700 4750
Wire Wire Line
	8550 4700 8550 4750
Wire Wire Line
	9150 4700 9150 4750
Wire Wire Line
	9150 4050 9150 4400
Wire Wire Line
	9150 4350 9000 4350
Wire Wire Line
	8700 4350 8550 4350
Wire Wire Line
	8550 4250 8550 4400
Wire Wire Line
	8550 4250 8050 4250
Connection ~ 8550 4350
Wire Wire Line
	9150 4050 8050 4050
Connection ~ 9150 4350
Wire Wire Line
	3650 4650 3650 4750
Wire Wire Line
	10300 3850 9800 3850
Wire Wire Line
	9800 3850 9800 3900
Wire Wire Line
	10300 3350 8050 3350
Wire Wire Line
	10300 3250 8050 3250
Wire Wire Line
	9750 3150 10300 3150
Wire Wire Line
	9550 4950 10650 4950
Wire Wire Line
	9550 3450 9550 4950
Wire Wire Line
	10250 4950 10250 5050
Wire Wire Line
	10650 4850 10650 5200
Wire Wire Line
	10250 5650 10250 5700
Wire Wire Line
	10650 5500 10650 5700
Connection ~ 10650 4950
Wire Wire Line
	10650 4400 10650 4550
Wire Wire Line
	4800 3400 3650 3400
Wire Wire Line
	4200 2050 4800 2050
Wire Wire Line
	4200 2150 4800 2150
Wire Wire Line
	4200 2250 4800 2250
Wire Wire Line
	4200 2350 4800 2350
Wire Wire Line
	4200 2450 4800 2450
Wire Wire Line
	4200 2550 4800 2550
Wire Wire Line
	4200 2650 4800 2650
Wire Wire Line
	4200 2750 4800 2750
Wire Wire Line
	4200 2850 4800 2850
Wire Wire Line
	8450 2150 8050 2150
Wire Wire Line
	8450 2250 8050 2250
Wire Wire Line
	8450 2350 8050 2350
Wire Wire Line
	8450 2450 8050 2450
Wire Wire Line
	8450 2550 8050 2550
Wire Wire Line
	8450 2650 8050 2650
Wire Wire Line
	8450 2750 8050 2750
Wire Wire Line
	8450 2850 8050 2850
Wire Wire Line
	4200 6700 4550 6700
Wire Wire Line
	4550 6650 4550 6800
Wire Wire Line
	3300 6700 3300 6750
Wire Wire Line
	2750 6700 3600 6700
Wire Wire Line
	3000 6700 3000 6750
Connection ~ 3300 6700
Wire Wire Line
	3000 7050 3000 7200
Wire Wire Line
	2150 7200 4900 7200
Wire Wire Line
	3300 7200 3300 7050
Wire Wire Line
	3900 7000 3900 7250
Connection ~ 3300 7200
Wire Wire Line
	4550 7200 4550 7100
Connection ~ 3900 7200
Connection ~ 3000 6700
Wire Wire Line
	2150 7200 2150 6800
Wire Wire Line
	2150 6800 1950 6800
Connection ~ 3000 7200
Wire Notes Line
	2350 6550 2350 6900
Wire Notes Line
	2350 6900 2750 6900
Wire Notes Line
	2750 6900 2750 6550
Wire Notes Line
	2750 6550 2350 6550
Wire Notes Line
	1550 6250 5200 6250
Wire Notes Line
	5200 6250 5200 7550
Wire Notes Line
	5200 7550 1550 7550
Wire Notes Line
	1550 7550 1550 6250
Wire Wire Line
	4900 7200 4900 6900
Connection ~ 4550 7200
Wire Wire Line
	3650 4200 3650 4250
Wire Wire Line
	9550 3450 8050 3450
Wire Wire Line
	3650 3900 3650 3850
Wire Wire Line
	3650 3400 3650 3450
Wire Wire Line
	2300 1650 2450 1650
Wire Wire Line
	2300 1950 2450 1950
Wire Wire Line
	2850 1950 3000 1950
Wire Wire Line
	3000 1950 3000 1850
Wire Wire Line
	3000 1750 3000 1650
Wire Wire Line
	3000 1650 2850 1650
Wire Notes Line
	2850 1400 2850 2250
Wire Notes Line
	2850 2250 2450 2250
Wire Notes Line
	2450 2250 2450 1400
Wire Notes Line
	2450 1400 2850 1400
Connection ~ 10250 4950
Wire Wire Line
	9550 3550 10300 3550
Connection ~ 9550 3550
Wire Notes Line
	10700 2850 10700 4100
Wire Notes Line
	10700 4100 10250 4100
Wire Notes Line
	10250 4100 10250 2850
Wire Notes Line
	10250 2850 10700 2850
Wire Notes Line
	10200 2200 10200 2600
Wire Notes Line
	10200 2600 10450 2850
Wire Wire Line
	8450 2050 8050 2050
Wire Wire Line
	2300 1750 1600 1750
Wire Wire Line
	2300 1850 1600 1850
Wire Wire Line
	2300 1850 2300 1950
Wire Wire Line
	2300 1750 2300 1650
Wire Notes Line
	900  2300 900  2500
Wire Notes Line
	900  2500 1100 2650
Wire Wire Line
	1950 6700 2350 6700
Wire Wire Line
	2150 6450 2300 6450
Wire Wire Line
	2300 6450 2300 6700
Connection ~ 2300 6700
Wire Wire Line
	1850 6450 1750 6450
Wire Wire Line
	4800 3650 4700 3650
Connection ~ 4200 4350
Wire Wire Line
	4200 2950 4250 2950
Wire Wire Line
	4250 2950 4250 3000
Wire Wire Line
	8450 1950 8300 1950
Wire Wire Line
	8300 1950 8300 1900
Wire Wire Line
	9750 3150 9750 3100
Connection ~ 4550 6700
Wire Wire Line
	3000 1850 4600 1850
Wire Wire Line
	4600 1850 4600 2050
Connection ~ 4600 2050
Wire Wire Line
	3000 1750 4700 1750
Wire Wire Line
	4700 1750 4700 2150
Connection ~ 4700 2150
$EndSCHEMATC
