EESchema Schematic File Version 2
LIBS:power
LIBS:board1114-cache
EELAYER 25 0
EELAYER END
$Descr A4 11693 8268
encoding utf-8
Sheet 2 2
Title "LPC1114 board"
Date "2016-12-10"
Rev "archivo Rev.txt"
Comp "Carducci L. "
Comment1 "placa de desarrollo básica"
Comment2 "Revisor Alonso R."
Comment3 "Licencia BSD"
Comment4 ""
$EndDescr
Text HLabel 7500 3550 2    60   Input ~ 0
RX
Text HLabel 7500 3450 2    60   Output ~ 0
TX
$Comp
L FT232RL U3
U 1 1 58349DEE
P 5400 4150
F 0 "U3" H 4750 5050 50  0000 L CNN
F 1 "FT232RL" H 5800 5050 50  0000 L CNN
F 2 "Housings_SSOP:SSOP-28_5.3x10.2mm_Pitch0.65mm" H 5400 2850 50  0001 C CNN
F 3 "" H 5400 4150 50  0000 C CNN
F 4 "768-1007-1-ND" H 5400 4150 60  0001 C CNN "Digikey#"
	1    5400 4150
	1    0    0    -1  
$EndComp
$Comp
L USB_OTG P5
U 1 1 58349EA7
P 2700 3750
F 0 "P5" H 3025 3625 50  0000 C CNN
F 1 "USB_OTG" H 2700 3950 50  0000 C CNN
F 2 "Connect:USB_Micro-B" V 2650 3650 50  0001 C CNN
F 3 "" V 2650 3650 50  0000 C CNN
F 4 "609-4613-1-ND" H 2700 3750 60  0001 C CNN "Digikey#"
	1    2700 3750
	0    -1   -1   0   
$EndComp
$Comp
L C C12
U 1 1 5834A1B2
P 4200 3350
F 0 "C12" H 4000 3450 50  0000 L CNN
F 1 "100nF" H 3950 3200 50  0000 L CNN
F 2 "Capacitors_SMD:C_1206" H 4238 3200 50  0001 C CNN
F 3 "" H 4200 3350 50  0000 C CNN
F 4 "810-C3216X7T2V104M6A" H 4200 3350 60  0001 C CNN "MOUSER#"
	1    4200 3350
	1    0    0    -1  
$EndComp
$Comp
L C C11
U 1 1 5834A2BB
P 3600 4300
F 0 "C11" H 3625 4400 50  0000 L CNN
F 1 "100nF" H 3625 4200 50  0000 L CNN
F 2 "Capacitors_SMD:C_1206" H 3638 4150 50  0001 C CNN
F 3 "" H 3600 4300 50  0000 C CNN
F 4 "810-C3216X7T2V104M6A" H 3600 4300 60  0001 C CNN "MOUSER#"
	1    3600 4300
	1    0    0    -1  
$EndComp
Wire Wire Line
	7500 3450 6200 3450
Wire Wire Line
	7500 3550 6200 3550
Wire Wire Line
	5600 5200 5600 5150
Wire Wire Line
	5600 5200 5200 5200
Wire Wire Line
	5200 5200 5200 5150
Wire Wire Line
	5400 5150 5400 5250
Connection ~ 5400 5200
Wire Wire Line
	5500 5150 5500 5200
Connection ~ 5500 5200
Wire Wire Line
	4600 4850 4500 4850
Wire Wire Line
	4500 4850 4500 4900
$Comp
L GND #PWR019
U 1 1 5834A464
P 5400 5250
F 0 "#PWR019" H 5400 5000 50  0001 C CNN
F 1 "GND" H 5400 5100 50  0001 C CNN
F 2 "" H 5400 5250 50  0000 C CNN
F 3 "" H 5400 5250 50  0000 C CNN
	1    5400 5250
	1    0    0    -1  
$EndComp
$Comp
L GND #PWR020
U 1 1 5834A4B2
P 4500 4900
F 0 "#PWR020" H 4500 4650 50  0001 C CNN
F 1 "GND" H 4500 4750 50  0001 C CNN
F 2 "" H 4500 4900 50  0000 C CNN
F 3 "" H 4500 4900 50  0000 C CNN
	1    4500 4900
	1    0    0    -1  
$EndComp
$Comp
L GND #PWR021
U 1 1 5834A5A5
P 4200 3550
F 0 "#PWR021" H 4200 3300 50  0001 C CNN
F 1 "GND" H 4200 3400 50  0001 C CNN
F 2 "" H 4200 3550 50  0000 C CNN
F 3 "" H 4200 3550 50  0000 C CNN
	1    4200 3550
	1    0    0    -1  
$EndComp
Wire Wire Line
	4200 3550 4200 3500
Wire Wire Line
	4200 3150 4200 3200
Wire Wire Line
	4500 3150 4500 3450
Wire Wire Line
	4500 3450 4600 3450
Wire Wire Line
	3050 3550 3000 3550
Wire Wire Line
	3050 3300 3050 3550
Wire Wire Line
	2400 3300 2400 3350
$Comp
L GND #PWR022
U 1 1 5834A65B
P 2400 3350
F 0 "#PWR022" H 2400 3100 50  0001 C CNN
F 1 "GND" H 2400 3200 50  0001 C CNN
F 2 "" H 2400 3350 50  0000 C CNN
F 3 "" H 2400 3350 50  0000 C CNN
	1    2400 3350
	1    0    0    -1  
$EndComp
Wire Wire Line
	3750 3950 3000 3950
Wire Wire Line
	3600 3950 3600 4150
Wire Wire Line
	3050 3300 2400 3300
Wire Wire Line
	2600 3300 2600 3350
Connection ~ 2600 3300
$Comp
L GND #PWR023
U 1 1 5834A760
P 3600 4500
F 0 "#PWR023" H 3600 4250 50  0001 C CNN
F 1 "GND" H 3600 4350 50  0001 C CNN
F 2 "" H 3600 4500 50  0000 C CNN
F 3 "" H 3600 4500 50  0000 C CNN
	1    3600 4500
	1    0    0    -1  
$EndComp
Wire Wire Line
	3600 4450 3600 4500
Wire Wire Line
	4600 3750 3000 3750
Wire Wire Line
	4600 3850 3000 3850
Wire Wire Line
	5300 3050 5300 3050
Wire Wire Line
	5300 3050 5300 3150
NoConn ~ 6200 4450
NoConn ~ 6200 4550
NoConn ~ 6200 4650
NoConn ~ 6200 4750
NoConn ~ 6200 4850
NoConn ~ 6200 4150
NoConn ~ 6200 4050
NoConn ~ 6200 3950
NoConn ~ 6200 3850
NoConn ~ 6200 3750
NoConn ~ 6200 3650
$Comp
L +3.3V #PWR024
U 1 1 5834AB14
P 5300 3050
F 0 "#PWR024" H 5300 2900 50  0001 C CNN
F 1 "+3.3V" H 5150 3100 50  0000 C CNN
F 2 "" H 5300 3050 50  0000 C CNN
F 3 "" H 5300 3050 50  0000 C CNN
	1    5300 3050
	1    0    0    -1  
$EndComp
NoConn ~ 4600 4550
NoConn ~ 4600 4350
NoConn ~ 4600 4150
NoConn ~ 4600 4250
Wire Notes Line
	7450 3350 7450 3650
Wire Notes Line
	7450 3650 7800 3650
Wire Notes Line
	7800 3650 7800 3350
Wire Notes Line
	7800 3350 7450 3350
Text Notes 7400 3300 0    60   ~ 0
Interfaz\nUART-LPC1114
Wire Notes Line
	2300 3150 2300 4100
Wire Notes Line
	2300 4100 3200 4100
Wire Notes Line
	3200 4100 3200 3150
Wire Notes Line
	3200 3150 2300 3150
Text Notes 2300 3100 0    60   ~ 0
Contector\nUSB
NoConn ~ 3000 3650
$Comp
L +5V #PWR025
U 1 1 5835036E
P 3750 3950
F 0 "#PWR025" H 3750 3800 50  0001 C CNN
F 1 "+5V" V 3750 4150 50  0000 C CNN
F 2 "" H 3750 3950 50  0000 C CNN
F 3 "" H 3750 3950 50  0000 C CNN
	1    3750 3950
	0    1    -1   0   
$EndComp
$Comp
L +5V #PWR026
U 1 1 583504B2
P 5500 3050
F 0 "#PWR026" H 5500 2900 50  0001 C CNN
F 1 "+5V" H 5350 3100 50  0000 C CNN
F 2 "" H 5500 3050 50  0000 C CNN
F 3 "" H 5500 3050 50  0000 C CNN
	1    5500 3050
	-1   0    0    -1  
$EndComp
Wire Wire Line
	5500 3050 5500 3150
Wire Wire Line
	4500 3150 4200 3150
Connection ~ 3600 3950
$EndSCHEMATC
