(module LEDs:LED_1206 (layer F.Cu) (tedit 583A7211)
  (descr "LED 1206 smd package")
  (tags "LED1206 SMD")
  (attr smd)
  (fp_text reference D1 (at -0.05 -2.3) (layer F.SilkS)
    (effects (font (size 1 1) (thickness 0.15)))
  )
  (fp_text value LED (at 0 2) (layer F.Fab)
    (effects (font (size 1 1) (thickness 0.15)))
  )
  (fp_line (start -2.15 1.05) (end 1.45 1.05) (layer F.SilkS) (width 0.15))
  (fp_line (start -2.15 -1.05) (end 1.45 -1.05) (layer F.SilkS) (width 0.15))
  (fp_line (start -0.1 -0.3) (end -0.1 0.3) (layer F.SilkS) (width 0.15))
  (fp_line (start -0.1 0.3) (end -0.4 0) (layer F.SilkS) (width 0.15))
  (fp_line (start -0.4 0) (end -0.2 -0.2) (layer F.SilkS) (width 0.15))
  (fp_line (start -0.2 -0.2) (end -0.2 0.05) (layer F.SilkS) (width 0.15))
  (fp_line (start -0.2 0.05) (end -0.25 0) (layer F.SilkS) (width 0.15))
  (fp_line (start -0.5 -0.5) (end -0.5 0.5) (layer F.SilkS) (width 0.15))
  (fp_line (start 0 0) (end 0.5 0) (layer F.SilkS) (width 0.15))
  (fp_line (start -0.5 0) (end 0 -0.5) (layer F.SilkS) (width 0.15))
  (fp_line (start 0 -0.5) (end 0 0.5) (layer F.SilkS) (width 0.15))
  (fp_line (start 0 0.5) (end -0.5 0) (layer F.SilkS) (width 0.15))
  (fp_line (start 2.5 -1.25) (end -2.5 -1.25) (layer F.CrtYd) (width 0.05))
  (fp_line (start -2.5 -1.25) (end -2.5 1.25) (layer F.CrtYd) (width 0.05))
  (fp_line (start -2.5 1.25) (end 2.5 1.25) (layer F.CrtYd) (width 0.05))
  (fp_line (start 2.5 1.25) (end 2.5 -1.25) (layer F.CrtYd) (width 0.05))
  (pad 2 smd rect (at 1.41986 0 180) (size 1.59766 1.80086) (layers F.Cu F.Paste F.Mask))
  (pad 1 smd rect (at -1.41986 0 180) (size 1.59766 1.80086) (layers F.Cu F.Paste F.Mask))
  (model LEDs.3dshapes/LED_1206.wrl
    (at (xyz 0 0 0))
    (scale (xyz 1 1 1))
    (rotate (xyz 0 0 180))
  )
)
