(module Pin_Headers:Pin_Header_Straight_1x10 (layer F.Cu) (tedit 583A720A)
  (descr "Through hole pin header")
  (tags "pin header")
  (fp_text reference P4 (at 0.1 -2.9) (layer F.SilkS)
    (effects (font (size 1 1) (thickness 0.15)))
  )
  (fp_text value CONN_IZQ (at 0 -3.1) (layer F.Fab)
    (effects (font (size 1 1) (thickness 0.15)))
  )
  (fp_line (start -1.75 -1.75) (end -1.75 24.65) (layer F.CrtYd) (width 0.05))
  (fp_line (start 1.75 -1.75) (end 1.75 24.65) (layer F.CrtYd) (width 0.05))
  (fp_line (start -1.75 -1.75) (end 1.75 -1.75) (layer F.CrtYd) (width 0.05))
  (fp_line (start -1.75 24.65) (end 1.75 24.65) (layer F.CrtYd) (width 0.05))
  (fp_line (start 1.27 1.27) (end 1.27 24.13) (layer F.SilkS) (width 0.15))
  (fp_line (start 1.27 24.13) (end -1.27 24.13) (layer F.SilkS) (width 0.15))
  (fp_line (start -1.27 24.13) (end -1.27 1.27) (layer F.SilkS) (width 0.15))
  (fp_line (start 1.55 -1.55) (end 1.55 0) (layer F.SilkS) (width 0.15))
  (fp_line (start 1.27 1.27) (end -1.27 1.27) (layer F.SilkS) (width 0.15))
  (fp_line (start -1.55 0) (end -1.55 -1.55) (layer F.SilkS) (width 0.15))
  (fp_line (start -1.55 -1.55) (end 1.55 -1.55) (layer F.SilkS) (width 0.15))
  (pad 1 thru_hole rect (at 0 0) (size 2.032 1.7272) (drill 1.016) (layers *.Cu *.Mask F.SilkS))
  (pad 2 thru_hole oval (at 0 2.54) (size 2.032 1.7272) (drill 1.016) (layers *.Cu *.Mask F.SilkS))
  (pad 3 thru_hole oval (at 0 5.08) (size 2.032 1.7272) (drill 1.016) (layers *.Cu *.Mask F.SilkS))
  (pad 4 thru_hole oval (at 0 7.62) (size 2.032 1.7272) (drill 1.016) (layers *.Cu *.Mask F.SilkS))
  (pad 5 thru_hole oval (at 0 10.16) (size 2.032 1.7272) (drill 1.016) (layers *.Cu *.Mask F.SilkS))
  (pad 6 thru_hole oval (at 0 12.7) (size 2.032 1.7272) (drill 1.016) (layers *.Cu *.Mask F.SilkS))
  (pad 7 thru_hole oval (at 0 15.24) (size 2.032 1.7272) (drill 1.016) (layers *.Cu *.Mask F.SilkS))
  (pad 8 thru_hole oval (at 0 17.78) (size 2.032 1.7272) (drill 1.016) (layers *.Cu *.Mask F.SilkS))
  (pad 9 thru_hole oval (at 0 20.32) (size 2.032 1.7272) (drill 1.016) (layers *.Cu *.Mask F.SilkS))
  (pad 10 thru_hole oval (at 0 22.86) (size 2.032 1.7272) (drill 1.016) (layers *.Cu *.Mask F.SilkS))
  (model ../../../../../home/neptuno/Escritorio/CircuitImpres/pin_strip/pin_socket_2mm_10.wrl
    (at (xyz 0 -0.45 0))
    (scale (xyz 1.25 1.25 1.25))
    (rotate (xyz 0 0 90))
  )
)
