(module Pin_Headers:Pin_Header_Straight_1x08 (layer F.Cu) (tedit 583B55B9)
  (descr "Through hole pin header")
  (tags "pin header")
  (fp_text reference P3 (at -3.25 18) (layer F.SilkS)
    (effects (font (size 1 1) (thickness 0.15)))
  )
  (fp_text value CONN_01X08 (at 0 -3.1) (layer F.Fab)
    (effects (font (size 1 1) (thickness 0.15)))
  )
  (fp_line (start -1.75 -1.75) (end -1.75 19.55) (layer F.CrtYd) (width 0.05))
  (fp_line (start 1.75 -1.75) (end 1.75 19.55) (layer F.CrtYd) (width 0.05))
  (fp_line (start -1.75 -1.75) (end 1.75 -1.75) (layer F.CrtYd) (width 0.05))
  (fp_line (start -1.75 19.55) (end 1.75 19.55) (layer F.CrtYd) (width 0.05))
  (fp_line (start 1.27 1.27) (end 1.27 19.05) (layer F.SilkS) (width 0.15))
  (fp_line (start 1.27 19.05) (end -1.27 19.05) (layer F.SilkS) (width 0.15))
  (fp_line (start -1.27 19.05) (end -1.27 1.27) (layer F.SilkS) (width 0.15))
  (fp_line (start 1.55 -1.55) (end 1.55 0) (layer F.SilkS) (width 0.15))
  (fp_line (start 1.27 1.27) (end -1.27 1.27) (layer F.SilkS) (width 0.15))
  (fp_line (start -1.55 0) (end -1.55 -1.55) (layer F.SilkS) (width 0.15))
  (fp_line (start -1.55 -1.55) (end 1.55 -1.55) (layer F.SilkS) (width 0.15))
  (pad 1 thru_hole rect (at 0 0) (size 2.032 1.7272) (drill 1.016) (layers *.Cu *.Mask F.SilkS))
  (pad 2 thru_hole oval (at 0 2.54) (size 2.032 1.7272) (drill 1.016) (layers *.Cu *.Mask F.SilkS))
  (pad 3 thru_hole oval (at 0 5.08) (size 2.032 1.7272) (drill 1.016) (layers *.Cu *.Mask F.SilkS))
  (pad 4 thru_hole oval (at 0 7.62) (size 2.032 1.7272) (drill 1.016) (layers *.Cu *.Mask F.SilkS))
  (pad 5 thru_hole oval (at 0 10.16) (size 2.032 1.7272) (drill 1.016) (layers *.Cu *.Mask F.SilkS))
  (pad 6 thru_hole oval (at 0 12.7) (size 2.032 1.7272) (drill 1.016) (layers *.Cu *.Mask F.SilkS))
  (pad 7 thru_hole oval (at 0 15.24) (size 2.032 1.7272) (drill 1.016) (layers *.Cu *.Mask F.SilkS))
  (pad 8 thru_hole oval (at 0 17.78) (size 2.032 1.7272) (drill 1.016) (layers *.Cu *.Mask F.SilkS))
  (model Pin_Headers.3dshapes/Pin_Header_Straight_1x08.wrl
    (at (xyz 0 -0.35 0))
    (scale (xyz 1 1 1))
    (rotate (xyz 0 0 90))
  )
)
