(module Buttons_Switches_ThroughHole:SW_TH_Tactile_Omron_B3F-10xx (layer F.Cu) (tedit 583A7244)
  (descr SW_TH_Tactile_Omron_B3F-10xx)
  (tags "Omron B3F-10xx")
  (fp_text reference SW1 (at 3 6.7) (layer F.SilkS)
    (effects (font (size 1 1) (thickness 0.15)))
  )
  (fp_text value SW_PUSH (at 2.95 -2.05) (layer F.Fab)
    (effects (font (size 1 1) (thickness 0.15)))
  )
  (fp_line (start -0.95 -1) (end -0.95 -0.9) (layer F.SilkS) (width 0.15))
  (fp_line (start -1.05 -1.05) (end -0.7 -1.05) (layer F.SilkS) (width 0.15))
  (fp_arc (start 0 0) (end -1.05 -0.7) (angle 22.61986495) (layer F.SilkS) (width 0.15))
  (fp_line (start -1.05 -1.05) (end -1.05 -0.7) (layer F.SilkS) (width 0.15))
  (fp_line (start 7.15 -1.15) (end 0.45 -1.15) (layer F.CrtYd) (width 0.05))
  (fp_line (start 7.15 5.15) (end 7.15 -1.15) (layer F.CrtYd) (width 0.05))
  (fp_line (start -1.15 5.15) (end 7.15 5.15) (layer F.CrtYd) (width 0.05))
  (fp_line (start -1.15 0) (end -1.15 5.15) (layer F.CrtYd) (width 0.05))
  (fp_line (start -1.15 -1.15) (end 0.45 -1.15) (layer F.CrtYd) (width 0.05))
  (fp_line (start -1.15 0) (end -1.15 -1.15) (layer F.CrtYd) (width 0.05))
  (fp_circle (center 3 2) (end 4 3) (layer F.SilkS) (width 0.15))
  (fp_line (start 1 5) (end 5 5) (layer F.SilkS) (width 0.15))
  (fp_line (start 1 -1) (end 5 -1) (layer F.SilkS) (width 0.15))
  (fp_line (start 0 2.75) (end 0 1.25) (layer F.SilkS) (width 0.15))
  (fp_line (start 6 1.25) (end 6 2.75) (layer F.SilkS) (width 0.15))
  (fp_line (start 0 2) (end 0 2) (layer F.SilkS) (width 0))
  (fp_line (start 5 5) (end 1 5) (layer F.SilkS) (width 0))
  (fp_line (start 5 -1) (end 1 -1) (layer F.SilkS) (width 0))
  (fp_line (start 6 2) (end 6 2) (layer F.SilkS) (width 0))
  (fp_circle (center 3 2) (end 4 3) (layer F.SilkS) (width 0))
  (pad 4 thru_hole circle (at 6 4) (size 1.7 1.7) (drill 1) (layers *.Cu *.Mask))
  (pad 3 thru_hole circle (at 0 4) (size 1.7 1.7) (drill 1) (layers *.Cu *.Mask))
  (pad 2 thru_hole circle (at 6 0) (size 1.7 1.7) (drill 1) (layers *.Cu *.Mask))
  (pad 1 thru_hole circle (at 0 0) (size 1.7 1.7) (drill 1) (layers *.Cu *.Mask))
  (model ../../../../../home/neptuno/Escritorio/CircuitImpres/switch/pcb_push.wrl
    (at (xyz 0.12 -0.08 0.03))
    (scale (xyz 1 1 1))
    (rotate (xyz 0 0 90))
  )
)
