(module Housings_SSOP:TSSOP-28_4.4x9.7mm_Pitch0.65mm (layer F.Cu) (tedit 583A71FF)
  (descr "TSSOP28: plastic thin shrink small outline package; 28 leads; body width 4.4 mm; (see NXP SSOP-TSSOP-VSO-REFLOW.pdf and sot361-1_po.pdf)")
  (tags "SSOP 0.65")
  (attr smd)
  (fp_text reference U1 (at 0 -6.35) (layer F.SilkS)
    (effects (font (size 1 1) (thickness 0.15)))
  )
  (fp_text value LPC1114 (at 0 5.9) (layer F.Fab)
    (effects (font (size 1 1) (thickness 0.15)))
  )
  (fp_line (start -3.65 -5.15) (end -3.65 5.15) (layer F.CrtYd) (width 0.05))
  (fp_line (start 3.65 -5.15) (end 3.65 5.15) (layer F.CrtYd) (width 0.05))
  (fp_line (start -3.65 -5.15) (end 3.65 -5.15) (layer F.CrtYd) (width 0.05))
  (fp_line (start -3.65 5.15) (end 3.65 5.15) (layer F.CrtYd) (width 0.05))
  (fp_line (start -2.325 -4.975) (end -2.325 -4.65) (layer F.SilkS) (width 0.15))
  (fp_line (start 2.325 -4.975) (end 2.325 -4.65) (layer F.SilkS) (width 0.15))
  (fp_line (start 2.325 4.975) (end 2.325 4.65) (layer F.SilkS) (width 0.15))
  (fp_line (start -2.325 4.975) (end -2.325 4.65) (layer F.SilkS) (width 0.15))
  (fp_line (start -2.325 -4.975) (end 2.325 -4.975) (layer F.SilkS) (width 0.15))
  (fp_line (start -2.325 4.975) (end 2.325 4.975) (layer F.SilkS) (width 0.15))
  (fp_line (start -2.325 -4.65) (end -3.4 -4.65) (layer F.SilkS) (width 0.15))
  (pad 1 smd rect (at -2.85 -4.225) (size 1.1 0.4) (layers F.Cu F.Paste F.Mask))
  (pad 2 smd rect (at -2.85 -3.575) (size 1.1 0.4) (layers F.Cu F.Paste F.Mask))
  (pad 3 smd rect (at -2.85 -2.925) (size 1.1 0.4) (layers F.Cu F.Paste F.Mask))
  (pad 4 smd rect (at -2.85 -2.275) (size 1.1 0.4) (layers F.Cu F.Paste F.Mask))
  (pad 5 smd rect (at -2.85 -1.625) (size 1.1 0.4) (layers F.Cu F.Paste F.Mask))
  (pad 6 smd rect (at -2.85 -0.975) (size 1.1 0.4) (layers F.Cu F.Paste F.Mask))
  (pad 7 smd rect (at -2.85 -0.325) (size 1.1 0.4) (layers F.Cu F.Paste F.Mask))
  (pad 8 smd rect (at -2.85 0.325) (size 1.1 0.4) (layers F.Cu F.Paste F.Mask))
  (pad 9 smd rect (at -2.85 0.975) (size 1.1 0.4) (layers F.Cu F.Paste F.Mask))
  (pad 10 smd rect (at -2.85 1.625) (size 1.1 0.4) (layers F.Cu F.Paste F.Mask))
  (pad 11 smd rect (at -2.85 2.275) (size 1.1 0.4) (layers F.Cu F.Paste F.Mask))
  (pad 12 smd rect (at -2.85 2.925) (size 1.1 0.4) (layers F.Cu F.Paste F.Mask))
  (pad 13 smd rect (at -2.85 3.575) (size 1.1 0.4) (layers F.Cu F.Paste F.Mask))
  (pad 14 smd rect (at -2.85 4.225) (size 1.1 0.4) (layers F.Cu F.Paste F.Mask))
  (pad 15 smd rect (at 2.85 4.225) (size 1.1 0.4) (layers F.Cu F.Paste F.Mask))
  (pad 16 smd rect (at 2.85 3.575) (size 1.1 0.4) (layers F.Cu F.Paste F.Mask))
  (pad 17 smd rect (at 2.85 2.925) (size 1.1 0.4) (layers F.Cu F.Paste F.Mask))
  (pad 18 smd rect (at 2.85 2.275) (size 1.1 0.4) (layers F.Cu F.Paste F.Mask))
  (pad 19 smd rect (at 2.85 1.625) (size 1.1 0.4) (layers F.Cu F.Paste F.Mask))
  (pad 20 smd rect (at 2.85 0.975) (size 1.1 0.4) (layers F.Cu F.Paste F.Mask))
  (pad 21 smd rect (at 2.85 0.325) (size 1.1 0.4) (layers F.Cu F.Paste F.Mask))
  (pad 22 smd rect (at 2.85 -0.325) (size 1.1 0.4) (layers F.Cu F.Paste F.Mask))
  (pad 23 smd rect (at 2.85 -0.975) (size 1.1 0.4) (layers F.Cu F.Paste F.Mask))
  (pad 24 smd rect (at 2.85 -1.625) (size 1.1 0.4) (layers F.Cu F.Paste F.Mask))
  (pad 25 smd rect (at 2.85 -2.275) (size 1.1 0.4) (layers F.Cu F.Paste F.Mask))
  (pad 26 smd rect (at 2.85 -2.925) (size 1.1 0.4) (layers F.Cu F.Paste F.Mask))
  (pad 27 smd rect (at 2.85 -3.575) (size 1.1 0.4) (layers F.Cu F.Paste F.Mask))
  (pad 28 smd rect (at 2.85 -4.225) (size 1.1 0.4) (layers F.Cu F.Paste F.Mask))
  (model Housings_SSOP.3dshapes/TSSOP-28_4.4x9.7mm_Pitch0.65mm.wrl
    (at (xyz 0 0 0))
    (scale (xyz 1 1 1))
    (rotate (xyz 0 0 0))
  )
)
